Runner examples • runner
…
    slope = runner(
      x = df[df$Company.name == Company.name2[1], ],
      k = "180 days",
      lag = "5 days",
      idx = df$Date[df$Company.name == Company.name2[1]],
      at = Event_date,
      f = function(x) {
        coef(
          lm(stock_return ~ market_return, data = x)
        )[2]
      }
    )
  )

## # A tibble: 900 x 4
## # Groups:   Company.name2 [2]
##    Company.name2 Event_date intercept   slope
##    <fct>         <date>         <dbl>   <dbl>
##  1 AAPL          2017-08-24   -0.0441  0.0247
##  2 AAPL          2019-04-21   -0.103   0.113 
##  3 AAPL          2016-06-23    0.0669 -0.0500
##  4 AAPL          2019-07-28   -0.0570  0.138 
##  5 AAPL          2016-05-27    0.0758 -0.0222
##  6 AAPL          2019-05-17   -0.0747  0.120 
##  7 AAPL          2015-11-13    0.0134 -0.0917
##  8 AAPL          2019-06-12   -0.0503  0.102 
##  9 AAPL          2017-03-14    0.0327 -0.0526
## 10 AAPL          2018-03-15    0.0252 -0.0734
## # … with 890 more rows
…
